%YAML 1.1
%TAG !u! tag:unity3d.com,2011:
--- !u!29 &1
OcclusionCullingSettings:
  m_ObjectHideFlags: 0
  serializedVersion: 2
  m_OcclusionBakeSettings:
    smallestOccluder: 5
    smallestHole: 0.25
    backfaceThreshold: 100
  m_SceneGUID: 00000000000000000000000000000000
  m_OcclusionCullingData: {fileID: 0}
--- !u!104 &2
RenderSettings:
  m_ObjectHideFlags: 0
  serializedVersion: 9
  m_Fog: 0
  m_FogColor: {r: 0.5, g: 0.5, b: 0.5, a: 1}
  m_FogMode: 3
  m_FogDensity: 0.01
  m_LinearFogStart: 0
  m_LinearFogEnd: 300
  m_AmbientSkyColor: {r: 0.2, g: 0.2, b: 0.2, a: 1}
  m_AmbientEquatorColor: {r: 0.2, g: 0.2, b: 0.2, a: 1}
  m_AmbientGroundColor: {r: 0.2, g: 0.2, b: 0.2, a: 1}
  m_AmbientIntensity: 1
  m_AmbientMode: 3
  m_SubtractiveShadowColor: {r: 0.42, g: 0.478, b: 0.627, a: 1}
  m_SkyboxMaterial: {fileID: 0}
  m_HaloStrength: 0.5
  m_FlareStrength: 1
  m_FlareFadeSpeed: 3
  m_HaloTexture: {fileID: 0}
  m_SpotCookie: {fileID: 10001, guid: 0000000000000000e000000000000000, type: 0}
  m_DefaultReflectionMode: 0
  m_DefaultReflectionResolution: 128
  m_ReflectionBounces: 1
  m_ReflectionIntensity: 1
  m_CustomReflection: {fileID: 0}
  m_Sun: {fileID: 0}
  m_IndirectSpecularColor: {r: 0, g: 0, b: 0, a: 1}
  m_UseRadianceAmbientProbe: 0
--- !u!157 &4
LightmapSettings:
  m_ObjectHideFlags: 0
  serializedVersion: 11
  m_GIWorkflowMode: 1
  m_GISettings:
    serializedVersion: 2
    m_BounceScale: 1
    m_IndirectOutputScale: 1
    m_AlbedoBoost: 1
    m_EnvironmentLightingMode: 0
    m_EnableBakedLightmaps: 1
    m_EnableRealtimeLightmaps: 0
  m_LightmapEditorSettings:
    serializedVersion: 10
    m_Resolution: 1
    m_BakeResolution: 50
    m_AtlasSize: 1024
    m_AO: 1
    m_AOMaxDistance: 1
    m_CompAOExponent: 1
    m_CompAOExponentDirect: 0
    m_Padding: 2
    m_LightmapParameters: {fileID: 0}
    m_LightmapsBakeMode: 1
    m_TextureCompression: 0
    m_FinalGather: 0
    m_FinalGatherFiltering: 1
    m_FinalGatherRayCount: 256
    m_ReflectionCompression: 2
    m_MixedBakeMode: 1
    m_BakeBackend: 0
    m_PVRSampling: 1
    m_PVRDirectSampleCount: 32
    m_PVRSampleCount: 500
    m_PVRBounces: 2
    m_PVRFilterTypeDirect: 0
    m_PVRFilterTypeIndirect: 0
    m_PVRFilterTypeAO: 0
    m_PVRFilteringMode: 0
    m_PVRCulling: 1
    m_PVRFilteringGaussRadiusDirect: 1
    m_PVRFilteringGaussRadiusIndirect: 5
    m_PVRFilteringGaussRadiusAO: 2
    m_PVRFilteringAtrousPositionSigmaDirect: 0.5
    m_PVRFilteringAtrousPositionSigmaIndirect: 2
    m_PVRFilteringAtrousPositionSigmaAO: 1
    m_ShowResolutionOverlay: 1
  m_LightingDataAsset: {fileID: 0}
  m_UseShadowmask: 0
--- !u!196 &5
NavMeshSettings:
  serializedVersion: 2
  m_ObjectHideFlags: 0
  m_BuildSettings:
    serializedVersion: 2
    agentTypeID: 0
    agentRadius: 0.5
    agentHeight: 2
    agentSlope: 45
    agentClimb: 0.4
    ledgeDropHeight: 0
    maxJumpAcrossDistance: 0
    minRegionArea: 2
    manualCellSize: 0
    cellSize: 0.16666666
    manualTileSize: 0
    tileSize: 256
    accuratePlacement: 0
    debug:
      m_Flags: 0
  m_NavMeshData: {fileID: 0}
--- !u!1001 &3946756
PrefabInstance:
  m_ObjectHideFlags: 0
  serializedVersion: 2
  m_Modification:
    m_TransformParent: {fileID: 301385720}
    m_Modifications:
    - target: {fileID: 400000, guid: aee91b2c56683c84f8d963a3be15a45a, type: 3}
      propertyPath: m_LocalPosition.x
      value: 44.8061867
      objectReference: {fileID: 0}
    - target: {fileID: 400000, guid: aee91b2c56683c84f8d963a3be15a45a, type: 3}
      propertyPath: m_LocalPosition.y
      value: 9.81537628
      objectReference: {fileID: 0}
    - target: {fileID: 400000, guid: aee91b2c56683c84f8d963a3be15a45a, type: 3}
      propertyPath: m_LocalPosition.z
      value: 46.6616669
      objectReference: {fileID: 0}
    - target: {fileID: 400000, guid: aee91b2c56683c84f8d963a3be15a45a, type: 3}
      propertyPath: m_LocalRotation.x
      value: 0
      objectReference: {fileID: 0}
    - target: {fileID: 400000, guid: aee91b2c56683c84f8d963a3be15a45a, type: 3}
      propertyPath: m_LocalRotation.y
      value: -0
      objectReference: {fileID: 0}
    - target: {fileID: 400000, guid: aee91b2c56683c84f8d963a3be15a45a, type: 3}
      propertyPath: m_LocalRotation.z
      value: 0
      objectReference: {fileID: 0}
    - target: {fileID: 400000, guid: aee91b2c56683c84f8d963a3be15a45a, type: 3}
      propertyPath: m_LocalRotation.w
      value: 1
      objectReference: {fileID: 0}
    m_RemovedComponents: []
  m_SourcePrefab: {fileID: 100100000, guid: aee91b2c56683c84f8d963a3be15a45a, type: 3}
--- !u!1001 &43323830
PrefabInstance:
  m_ObjectHideFlags: 0
  serializedVersion: 2
  m_Modification:
    m_TransformParent: {fileID: 301385720}
    m_Modifications:
    - target: {fileID: 400000, guid: 115d50560fda56143953f54ecec6510f, type: 3}
      propertyPath: m_LocalPosition.x
      value: 13.6451721
      objectReference: {fileID: 0}
    - target: {fileID: 400000, guid: 115d50560fda56143953f54ecec6510f, type: 3}
      propertyPath: m_LocalPosition.y
      value: 9.81537628
      objectReference: {fileID: 0}
    - target: {fileID: 400000, guid: 115d50560fda56143953f54ecec6510f, type: 3}
      propertyPath: m_LocalPosition.z
      value: 34.2917175
      objectReference: {fileID: 0}
    - target: {fileID: 400000, guid: 115d50560fda56143953f54ecec6510f, type: 3}
      propertyPath: m_LocalRotation.x
      value: 0
      objectReference: {fileID: 0}
    - target: {fileID: 400000, guid: 115d50560fda56143953f54ecec6510f, type: 3}
      propertyPath: m_LocalRotation.y
      value: -0
      objectReference: {fileID: 0}
    - target: {fileID: 400000, guid: 115d50560fda56143953f54ecec6510f, type: 3}
      propertyPath: m_LocalRotation.z
      value: 0
      objectReference: {fileID: 0}
    - target: {fileID: 400000, guid: 115d50560fda56143953f54ecec6510f, type: 3}
      propertyPath: m_LocalRotation.w
      value: 1
      objectReference: {fileID: 0}
    m_RemovedComponents: []
  m_SourcePrefab: {fileID: 100100000, guid: 115d50560fda56143953f54ecec6510f, type: 3}
--- !u!4 &46461849 stripped
Transform:
  m_CorrespondingSourceObject: {fileID: 400000, guid: 64b078ca9ad82a04286cfc7853a16cca,
    type: 3}
  m_PrefabInstance: {fileID: 217840778}
  m_PrefabAsset: {fileID: 0}
--- !u!4 &50397044 stripped
Transform:
  m_CorrespondingSourceObject: {fileID: 400000, guid: 6b478fd1ffae8814ea0216ef598a101f,
    type: 3}
  m_PrefabInstance: {fileID: 748026898}
  m_PrefabAsset: {fileID: 0}
--- !u!4 &63826586 stripped
Transform:
  m_CorrespondingSourceObject: {fileID: 400000, guid: 98e0944a4bd66d94092ba6edeb2b517c,
    type: 3}
  m_PrefabInstance: {fileID: 2021685491}
  m_PrefabAsset: {fileID: 0}
--- !u!4 &70398213 stripped
Transform:
  m_CorrespondingSourceObject: {fileID: 400000, guid: 1032b362348098c438fb6da8cd855541,
    type: 3}
  m_PrefabInstance: {fileID: 286956566}
  m_PrefabAsset: {fileID: 0}
--- !u!1001 &178138550
PrefabInstance:
  m_ObjectHideFlags: 0
  serializedVersion: 2
  m_Modification:
    m_TransformParent: {fileID: 301385720}
    m_Modifications:
    - target: {fileID: 400000, guid: 62486b824594537418e6be96990499af, type: 3}
      propertyPath: m_LocalPosition.x
      value: -15.7196198
      objectReference: {fileID: 0}
    - target: {fileID: 400000, guid: 62486b824594537418e6be96990499af, type: 3}
      propertyPath: m_LocalPosition.y
      value: 9.81537628
      objectReference: {fileID: 0}
    - target: {fileID: 400000, guid: 62486b824594537418e6be96990499af, type: 3}
      propertyPath: m_LocalPosition.z
      value: -45.1368637
      objectReference: {fileID: 0}
    - target: {fileID: 400000, guid: 62486b824594537418e6be96990499af, type: 3}
      propertyPath: m_LocalRotation.x
      value: 0
      objectReference: {fileID: 0}
    - target: {fileID: 400000, guid: 62486b824594537418e6be96990499af, type: 3}
      propertyPath: m_LocalRotation.y
      value: -0
      objectReference: {fileID: 0}
    - target: {fileID: 400000, guid: 62486b824594537418e6be96990499af, type: 3}
      propertyPath: m_LocalRotation.z
      value: 0
      objectReference: {fileID: 0}
    - target: {fileID: 400000, guid: 62486b824594537418e6be96990499af, type: 3}
      propertyPath: m_LocalRotation.w
      value: 1
      objectReference: {fileID: 0}
    m_RemovedComponents: []
  m_SourcePrefab: {fileID: 100100000, guid: 62486b824594537418e6be96990499af, type: 3}
--- !u!1001 &186795470
PrefabInstance:
  m_ObjectHideFlags: 0
  serializedVersion: 2
  m_Modification:
    m_TransformParent: {fileID: 301385720}
    m_Modifications:
    - target: {fileID: 400000, guid: 93c53fbaa649d054d8ab9f50fc853c5e, type: 3}
      propertyPath: m_LocalPosition.x
      value: 56.4005051
      objectReference: {fileID: 0}
    - target: {fileID: 400000, guid: 93c53fbaa649d054d8ab9f50fc853c5e, type: 3}
      propertyPath: m_LocalPosition.y
      value: 9.81537628
      objectReference: {fileID: 0}
    - target: {fileID: 400000, guid: 93c53fbaa649d054d8ab9f50fc853c5e, type: 3}
      propertyPath: m_LocalPosition.z
      value: 45.7752304
      objectReference: {fileID: 0}
    - target: {fileID: 400000, guid: 93c53fbaa649d054d8ab9f50fc853c5e, type: 3}
      propertyPath: m_LocalRotation.x
      value: 0
      objectReference: {fileID: 0}
    - target: {fileID: 400000, guid: 93c53fbaa649d054d8ab9f50fc853c5e, type: 3}
      propertyPath: m_LocalRotation.y
      value: -0
      objectReference: {fileID: 0}
    - target: {fileID: 400000, guid: 93c53fbaa649d054d8ab9f50fc853c5e, type: 3}
      propertyPath: m_LocalRotation.z
      value: 0
      objectReference: {fileID: 0}
    - target: {fileID: 400000, guid: 93c53fbaa649d054d8ab9f50fc853c5e, type: 3}
      propertyPath: m_LocalRotation.w
      value: 1
      objectReference: {fileID: 0}
    m_RemovedComponents: []
  m_SourcePrefab: {fileID: 100100000, guid: 93c53fbaa649d054d8ab9f50fc853c5e, type: 3}
--- !u!1001 &217840778
PrefabInstance:
  m_ObjectHideFlags: 0
  serializedVersion: 2
  m_Modification:
    m_TransformParent: {fileID: 301385720}
    m_Modifications:
    - target: {fileID: 400000, guid: 64b078ca9ad82a04286cfc7853a16cca, type: 3}
      propertyPath: m_LocalPosition.x
      value: 19.3130341
      objectReference: {fileID: 0}
    - target: {fileID: 400000, guid: 64b078ca9ad82a04286cfc7853a16cca, type: 3}
      propertyPath: m_LocalPosition.y
      value: 9.81537628
      objectReference: {fileID: 0}
    - target: {fileID: 400000, guid: 64b078ca9ad82a04286cfc7853a16cca, type: 3}
      propertyPath: m_LocalPosition.z
      value: -107.897667
      objectReference: {fileID: 0}
    - target: {fileID: 400000, guid: 64b078ca9ad82a04286cfc7853a16cca, type: 3}
      propertyPath: m_LocalRotation.x
      value: 0
      objectReference: {fileID: 0}
    - target: {fileID: 400000, guid: 64b078ca9ad82a04286cfc7853a16cca, type: 3}
      propertyPath: m_LocalRotation.y
      value: -0
      objectReference: {fileID: 0}
    - target: {fileID: 400000, guid: 64b078ca9ad82a04286cfc7853a16cca, type: 3}
      propertyPath: m_LocalRotation.z
      value: 0
      objectReference: {fileID: 0}
    - target: {fileID: 400000, guid: 64b078ca9ad82a04286cfc7853a16cca, type: 3}
      propertyPath: m_LocalRotation.w
      value: 1
      objectReference: {fileID: 0}
    m_RemovedComponents: []
  m_SourcePrefab: {fileID: 100100000, guid: 64b078ca9ad82a04286cfc7853a16cca, type: 3}
--- !u!1001 &286956566
PrefabInstance:
  m_ObjectHideFlags: 0
  serializedVersion: 2
  m_Modification:
    m_TransformParent: {fileID: 301385720}
    m_Modifications:
    - target: {fileID: 400000, guid: 1032b362348098c438fb6da8cd855541, type: 3}
      propertyPath: m_LocalPosition.x
      value: 44.7026215
      objectReference: {fileID: 0}
    - target: {fileID: 400000, guid: 1032b362348098c438fb6da8cd855541, type: 3}
      propertyPath: m_LocalPosition.y
      value: 9.81537628
      objectReference: {fileID: 0}
    - target: {fileID: 400000, guid: 1032b362348098c438fb6da8cd855541, type: 3}
      propertyPath: m_LocalPosition.z
      value: -45.6374664
      objectReference: {fileID: 0}
    - target: {fileID: 400000, guid: 1032b362348098c438fb6da8cd855541, type: 3}
      propertyPath: m_LocalRotation.x
      value: 0
      objectReference: {fileID: 0}
    - target: {fileID: 400000, guid: 1032b362348098c438fb6da8cd855541, type: 3}
      propertyPath: m_LocalRotation.y
      value: -0
      objectReference: {fileID: 0}
    - target: {fileID: 400000, guid: 1032b362348098c438fb6da8cd855541, type: 3}
      propertyPath: m_LocalRotation.z
      value: 0
      objectReference: {fileID: 0}
    - target: {fileID: 400000, guid: 1032b362348098c438fb6da8cd855541, type: 3}
      propertyPath: m_LocalRotation.w
      value: 1
      objectReference: {fileID: 0}
    m_RemovedComponents: []
  m_SourcePrefab: {fileID: 100100000, guid: 1032b362348098c438fb6da8cd855541, type: 3}
--- !u!1001 &299963178
PrefabInstance:
  m_ObjectHideFlags: 0
  serializedVersion: 2
  m_Modification:
    m_TransformParent: {fileID: 301385720}
    m_Modifications:
    - target: {fileID: 400000, guid: 061649ebce6383f4481158f40001d210, type: 3}
      propertyPath: m_LocalPosition.x
      value: -37.2637901
      objectReference: {fileID: 0}
    - target: {fileID: 400000, guid: 061649ebce6383f4481158f40001d210, type: 3}
      propertyPath: m_LocalPosition.y
      value: 9.81537628
      objectReference: {fileID: 0}
    - target: {fileID: 400000, guid: 061649ebce6383f4481158f40001d210, type: 3}
      propertyPath: m_LocalPosition.z
      value: -47.0361176
      objectReference: {fileID: 0}
    - target: {fileID: 400000, guid: 061649ebce6383f4481158f40001d210, type: 3}
      propertyPath: m_LocalRotation.x
      value: 0
      objectReference: {fileID: 0}
    - target: {fileID: 400000, guid: 061649ebce6383f4481158f40001d210, type: 3}
      propertyPath: m_LocalRotation.y
      value: -0
      objectReference: {fileID: 0}
    - target: {fileID: 400000, guid: 061649ebce6383f4481158f40001d210, type: 3}
      propertyPath: m_LocalRotation.z
      value: 0
      objectReference: {fileID: 0}
    - target: {fileID: 400000, guid: 061649ebce6383f4481158f40001d210, type: 3}
      propertyPath: m_LocalRotation.w
      value: 1
      objectReference: {fileID: 0}
    m_RemovedComponents: []
  m_SourcePrefab: {fileID: 100100000, guid: 061649ebce6383f4481158f40001d210, type: 3}
--- !u!1 &301385719
GameObject:
  m_ObjectHideFlags: 0
  m_CorrespondingSourceObject: {fileID: 0}
  m_PrefabInstance: {fileID: 0}
  m_PrefabAsset: {fileID: 0}
  serializedVersion: 6
  m_Component:
  - component: {fileID: 301385720}
  m_Layer: 0
  m_Name: Buildings
  m_TagString: Untagged
  m_Icon: {fileID: 0}
  m_NavMeshLayer: 0
  m_StaticEditorFlags: 0
  m_IsActive: 1
--- !u!4 &301385720
Transform:
  m_ObjectHideFlags: 0
  m_CorrespondingSourceObject: {fileID: 0}
  m_PrefabInstance: {fileID: 0}
  m_PrefabAsset: {fileID: 0}
  m_GameObject: {fileID: 301385719}
  m_LocalRotation: {x: 0, y: 0, z: 0, w: 1}
  m_LocalPosition: {x: 15.71962, y: -9.815376, z: -17.036688}
  m_LocalScale: {x: 1, y: 1, z: 1}
  m_Children:
  - {fileID: 924361497}
  - {fileID: 1786211416}
  - {fileID: 1976415071}
  - {fileID: 912954701}
  - {fileID: 46461849}
  - {fileID: 70398213}
  - {fileID: 1237321566}
  - {fileID: 960219223}
  - {fileID: 602601150}
  - {fileID: 1690309760}
  - {fileID: 486284000}
  - {fileID: 1369721980}
  - {fileID: 393495921}
  - {fileID: 2088056253}
  - {fileID: 1289808073}
  - {fileID: 541028400}
  - {fileID: 50397044}
  - {fileID: 734009373}
  - {fileID: 1178766411}
  - {fileID: 1651718377}
  - {fileID: 538903905}
  - {fileID: 1796990709}
  - {fileID: 618696030}
  - {fileID: 1924014938}
  - {fileID: 1156902684}
  - {fileID: 905526613}
  - {fileID: 1625437286}
  - {fileID: 946889519}
  - {fileID: 1447091459}
  - {fileID: 1391266825}
  - {fileID: 449394774}
  - {fileID: 952864333}
  - {fileID: 1331158681}
  - {fileID: 614001314}
  - {fileID: 624281659}
  - {fileID: 2012528258}
  - {fileID: 63826586}
  - {fileID: 1537486339}
  - {fileID: 1495359114}
  m_Father: {fileID: 0}
  m_RootOrder: 0
  m_LocalEulerAnglesHint: {x: 0, y: 0, z: 0}
--- !u!1001 &337132434
PrefabInstance:
  m_ObjectHideFlags: 0
  serializedVersion: 2
  m_Modification:
    m_TransformParent: {fileID: 301385720}
    m_Modifications:
    - target: {fileID: 400000, guid: 150e74af2c5088c48a32d7237ba4a43c, type: 3}
      propertyPath: m_LocalPosition.x
      value: -16.7951832
      objectReference: {fileID: 0}
    - target: {fileID: 400000, guid: 150e74af2c5088c48a32d7237ba4a43c, type: 3}
      propertyPath: m_LocalPosition.y
      value: 9.81537628
      objectReference: {fileID: 0}
    - target: {fileID: 400000, guid: 150e74af2c5088c48a32d7237ba4a43c, type: 3}
      propertyPath: m_LocalPosition.z
      value: 61.9751282
      objectReference: {fileID: 0}
    - target: {fileID: 400000, guid: 150e74af2c5088c48a32d7237ba4a43c, type: 3}
      propertyPath: m_LocalRotation.x
      value: 0
      objectReference: {fileID: 0}
    - target: {fileID: 400000, guid: 150e74af2c5088c48a32d7237ba4a43c, type: 3}
      propertyPath: m_LocalRotation.y
      value: -0
      objectReference: {fileID: 0}
    - target: {fileID: 400000, guid: 150e74af2c5088c48a32d7237ba4a43c, type: 3}
      propertyPath: m_LocalRotation.z
      value: 0
      objectReference: {fileID: 0}
    - target: {fileID: 400000, guid: 150e74af2c5088c48a32d7237ba4a43c, type: 3}
      propertyPath: m_LocalRotation.w
      value: 1
      objectReference: {fileID: 0}
    m_RemovedComponents: []
  m_SourcePrefab: {fileID: 100100000, guid: 150e74af2c5088c48a32d7237ba4a43c, type: 3}
--- !u!1001 &342726439
PrefabInstance:
  m_ObjectHideFlags: 0
  serializedVersion: 2
  m_Modification:
    m_TransformParent: {fileID: 301385720}
    m_Modifications:
    - target: {fileID: 400000, guid: a9ecfb4ec1af8e34fbd8d15e76a6d303, type: 3}
      propertyPath: m_LocalPosition.x
      value: -36.4178467
      objectReference: {fileID: 0}
    - target: {fileID: 400000, guid: a9ecfb4ec1af8e34fbd8d15e76a6d303, type: 3}
      propertyPath: m_LocalPosition.y
      value: 9.81537628
      objectReference: {fileID: 0}
    - target: {fileID: 400000, guid: a9ecfb4ec1af8e34fbd8d15e76a6d303, type: 3}
      propertyPath: m_LocalPosition.z
      value: -77.1656113
      objectReference: {fileID: 0}
    - target: {fileID: 400000, guid: a9ecfb4ec1af8e34fbd8d15e76a6d303, type: 3}
      propertyPath: m_LocalRotation.x
      value: 0
      objectReference: {fileID: 0}
    - target: {fileID: 400000, guid: a9ecfb4ec1af8e34fbd8d15e76a6d303, type: 3}
      propertyPath: m_LocalRotation.y
      value: -0
      objectReference: {fileID: 0}
    - target: {fileID: 400000, guid: a9ecfb4ec1af8e34fbd8d15e76a6d303, type: 3}
      propertyPath: m_LocalRotation.z
      value: 0
      objectReference: {fileID: 0}
    - target: {fileID: 400000, guid: a9ecfb4ec1af8e34fbd8d15e76a6d303, type: 3}
      propertyPath: m_LocalRotation.w
      value: 1
      objectReference: {fileID: 0}
    m_RemovedComponents: []
  m_SourcePrefab: {fileID: 100100000, guid: a9ecfb4ec1af8e34fbd8d15e76a6d303, type: 3}
--- !u!1001 &346651118
PrefabInstance:
  m_ObjectHideFlags: 0
  serializedVersion: 2
  m_Modification:
    m_TransformParent: {fileID: 301385720}
    m_Modifications:
    - target: {fileID: 400000, guid: e2f4b4a8e48a55c41a713ab188b635b8, type: 3}
      propertyPath: m_LocalPosition.x
      value: -7.73139191
      objectReference: {fileID: 0}
    - target: {fileID: 400000, guid: e2f4b4a8e48a55c41a713ab188b635b8, type: 3}
      propertyPath: m_LocalPosition.y
      value: 9.81537628
      objectReference: {fileID: 0}
    - target: {fileID: 400000, guid: e2f4b4a8e48a55c41a713ab188b635b8, type: 3}
      propertyPath: m_LocalPosition.z
      value: 40.9469528
      objectReference: {fileID: 0}
    - target: {fileID: 400000, guid: e2f4b4a8e48a55c41a713ab188b635b8, type: 3}
      propertyPath: m_LocalRotation.x
      value: 0
      objectReference: {fileID: 0}
    - target: {fileID: 400000, guid: e2f4b4a8e48a55c41a713ab188b635b8, type: 3}
      propertyPath: m_LocalRotation.y
      value: -0
      objectReference: {fileID: 0}
    - target: {fileID: 400000, guid: e2f4b4a8e48a55c41a713ab188b635b8, type: 3}
      propertyPath: m_LocalRotation.z
      value: 0
      objectReference: {fileID: 0}
    - target: {fileID: 400000, guid: e2f4b4a8e48a55c41a713ab188b635b8, type: 3}
      propertyPath: m_LocalRotation.w
      value: 1
      objectReference: {fileID: 0}
    m_RemovedComponents: []
  m_SourcePrefab: {fileID: 100100000, guid: e2f4b4a8e48a55c41a713ab188b635b8, type: 3}
--- !u!4 &393495921 stripped
Transform:
  m_CorrespondingSourceObject: {fileID: 400000, guid: 118a8ccb8f1c5d54a9cdf906d6759a69,
    type: 3}
  m_PrefabInstance: {fileID: 511126770}
  m_PrefabAsset: {fileID: 0}
--- !u!1001 &444956099
PrefabInstance:
  m_ObjectHideFlags: 0
  serializedVersion: 2
  m_Modification:
    m_TransformParent: {fileID: 301385720}
    m_Modifications:
    - target: {fileID: 400000, guid: ad5740db00c2d124eb90fa7c22ae1703, type: 3}
      propertyPath: m_LocalPosition.x
      value: 44.7073822
      objectReference: {fileID: 0}
    - target: {fileID: 400000, guid: ad5740db00c2d124eb90fa7c22ae1703, type: 3}
      propertyPath: m_LocalPosition.y
      value: 9.81537628
      objectReference: {fileID: 0}
    - target: {fileID: 400000, guid: ad5740db00c2d124eb90fa7c22ae1703, type: 3}
      propertyPath: m_LocalPosition.z
      value: 73.6210022
      objectReference: {fileID: 0}
    - target: {fileID: 400000, guid: ad5740db00c2d124eb90fa7c22ae1703, type: 3}
      propertyPath: m_LocalRotation.x
      value: 0
      objectReference: {fileID: 0}
    - target: {fileID: 400000, guid: ad5740db00c2d124eb90fa7c22ae1703, type: 3}
      propertyPath: m_LocalRotation.y
      value: -0
      objectReference: {fileID: 0}
    - target: {fileID: 400000, guid: ad5740db00c2d124eb90fa7c22ae1703, type: 3}
      propertyPath: m_LocalRotation.z
      value: 0
      objectReference: {fileID: 0}
    - target: {fileID: 400000, guid: ad5740db00c2d124eb90fa7c22ae1703, type: 3}
      propertyPath: m_LocalRotation.w
      value: 1
      objectReference: {fileID: 0}
    m_RemovedComponents: []
  m_SourcePrefab: {fileID: 100100000, guid: ad5740db00c2d124eb90fa7c22ae1703, type: 3}
--- !u!4 &449394774 stripped
Transform:
  m_CorrespondingSourceObject: {fileID: 400000, guid: 724e2c0944d598a4687ac169ae627cfc,
    type: 3}
  m_PrefabInstance: {fileID: 1436037932}
  m_PrefabAsset: {fileID: 0}
--- !u!4 &486284000 stripped
Transform:
  m_CorrespondingSourceObject: {fileID: 400000, guid: ad5740db00c2d124eb90fa7c22ae1703,
    type: 3}
  m_PrefabInstance: {fileID: 444956099}
  m_PrefabAsset: {fileID: 0}
--- !u!1001 &507675344
PrefabInstance:
  m_ObjectHideFlags: 0
  serializedVersion: 2
  m_Modification:
    m_TransformParent: {fileID: 301385720}
    m_Modifications:
    - target: {fileID: 400000, guid: adcbc927843cb464696a5e0eafc874d6, type: 3}
      propertyPath: m_LocalPosition.x
      value: 13.8017578
      objectReference: {fileID: 0}
    - target: {fileID: 400000, guid: adcbc927843cb464696a5e0eafc874d6, type: 3}
      propertyPath: m_LocalPosition.y
      value: 9.81537628
      objectReference: {fileID: 0}
    - target: {fileID: 400000, guid: adcbc927843cb464696a5e0eafc874d6, type: 3}
      propertyPath: m_LocalPosition.z
      value: 17.4586754
      objectReference: {fileID: 0}
    - target: {fileID: 400000, guid: adcbc927843cb464696a5e0eafc874d6, type: 3}
      propertyPath: m_LocalRotation.x
      value: 0
      objectReference: {fileID: 0}
    - target: {fileID: 400000, guid: adcbc927843cb464696a5e0eafc874d6, type: 3}
      propertyPath: m_LocalRotation.y
      value: -0
      objectReference: {fileID: 0}
    - target: {fileID: 400000, guid: adcbc927843cb464696a5e0eafc874d6, type: 3}
      propertyPath: m_LocalRotation.z
      value: 0
      objectReference: {fileID: 0}
    - target: {fileID: 400000, guid: adcbc927843cb464696a5e0eafc874d6, type: 3}
      propertyPath: m_LocalRotation.w
      value: 1
      objectReference: {fileID: 0}
    m_RemovedComponents: []
  m_SourcePrefab: {fileID: 100100000, guid: adcbc927843cb464696a5e0eafc874d6, type: 3}
--- !u!1001 &511126770
PrefabInstance:
  m_ObjectHideFlags: 0
  serializedVersion: 2
  m_Modification:
    m_TransformParent: {fileID: 301385720}
    m_Modifications:
    - target: {fileID: 400000, guid: 118a8ccb8f1c5d54a9cdf906d6759a69, type: 3}
      propertyPath: m_LocalPosition.x
      value: 4.179245
      objectReference: {fileID: 0}
    - target: {fileID: 400000, guid: 118a8ccb8f1c5d54a9cdf906d6759a69, type: 3}
      propertyPath: m_LocalPosition.y
      value: 9.81537628
      objectReference: {fileID: 0}
    - target: {fileID: 400000, guid: 118a8ccb8f1c5d54a9cdf906d6759a69, type: 3}
      propertyPath: m_LocalPosition.z
      value: 39.499649
      objectReference: {fileID: 0}
    - target: {fileID: 400000, guid: 118a8ccb8f1c5d54a9cdf906d6759a69, type: 3}
      propertyPath: m_LocalRotation.x
      value: 0
      objectReference: {fileID: 0}
    - target: {fileID: 400000, guid: 118a8ccb8f1c5d54a9cdf906d6759a69, type: 3}
      propertyPath: m_LocalRotation.y
      value: -0
      objectReference: {fileID: 0}
    - target: {fileID: 400000, guid: 118a8ccb8f1c5d54a9cdf906d6759a69, type: 3}
      propertyPath: m_LocalRotation.z
      value: 0
      objectReference: {fileID: 0}
    - target: {fileID: 400000, guid: 118a8ccb8f1c5d54a9cdf906d6759a69, type: 3}
      propertyPath: m_LocalRotation.w
      value: 1
      objectReference: {fileID: 0}
    m_RemovedComponents: []
  m_SourcePrefab: {fileID: 100100000, guid: 118a8ccb8f1c5d54a9cdf906d6759a69, type: 3}
--- !u!4 &538903905 stripped
Transform:
  m_CorrespondingSourceObject: {fileID: 400000, guid: 4a8160bb967261540a58a9a1dd437447,
    type: 3}
  m_PrefabInstance: {fileID: 898555075}
  m_PrefabAsset: {fileID: 0}
--- !u!4 &541028400 stripped
Transform:
  m_CorrespondingSourceObject: {fileID: 400000, guid: 8cbe172ac5bbd71498240f22a4cc72ff,
    type: 3}
  m_PrefabInstance: {fileID: 714864085}
  m_PrefabAsset: {fileID: 0}
--- !u!1001 &572619739
PrefabInstance:
  m_ObjectHideFlags: 0
  serializedVersion: 2
  m_Modification:
    m_TransformParent: {fileID: 301385720}
    m_Modifications:
    - target: {fileID: 400000, guid: 163ad948853f7154aaac3973d8701044, type: 3}
      propertyPath: m_LocalPosition.x
      value: 48.8448334
      objectReference: {fileID: 0}
    - target: {fileID: 400000, guid: 163ad948853f7154aaac3973d8701044, type: 3}
      propertyPath: m_LocalPosition.y
      value: 9.81537628
      objectReference: {fileID: 0}
    - target: {fileID: 400000, guid: 163ad948853f7154aaac3973d8701044, type: 3}
      propertyPath: m_LocalPosition.z
      value: -18.7663364
      objectReference: {fileID: 0}
    - target: {fileID: 400000, guid: 163ad948853f7154aaac3973d8701044, type: 3}
      propertyPath: m_LocalRotation.x
      value: 0
      objectReference: {fileID: 0}
    - target: {fileID: 400000, guid: 163ad948853f7154aaac3973d8701044, type: 3}
      propertyPath: m_LocalRotation.y
      value: -0
      objectReference: {fileID: 0}
    - target: {fileID: 400000, guid: 163ad948853f7154aaac3973d8701044, type: 3}
      propertyPath: m_LocalRotation.z
      value: 0
      objectReference: {fileID: 0}
    - target: {fileID: 400000, guid: 163ad948853f7154aaac3973d8701044, type: 3}
      propertyPath: m_LocalRotation.w
      value: 1
      objectReference: {fileID: 0}
    m_RemovedComponents: []
  m_SourcePrefab: {fileID: 100100000, guid: 163ad948853f7154aaac3973d8701044, type: 3}
--- !u!4 &602601150 stripped
Transform:
  m_CorrespondingSourceObject: {fileID: 400000, guid: a9ecfb4ec1af8e34fbd8d15e76a6d303,
    type: 3}
  m_PrefabInstance: {fileID: 342726439}
  m_PrefabAsset: {fileID: 0}
--- !u!4 &614001314 stripped
Transform:
  m_CorrespondingSourceObject: {fileID: 400000, guid: d4de0a989e8a5164b9b72abda47dc777,
    type: 3}
  m_PrefabInstance: {fileID: 1628099480}
  m_PrefabAsset: {fileID: 0}
--- !u!4 &618696030 stripped
Transform:
  m_CorrespondingSourceObject: {fileID: 400000, guid: 23336e1fec3046f43a692301ea78cc94,
    type: 3}
  m_PrefabInstance: {fileID: 922272524}
  m_PrefabAsset: {fileID: 0}
--- !u!4 &624281659 stripped
Transform:
  m_CorrespondingSourceObject: {fileID: 400000, guid: fdfd9a22632f9724097a54dfbf28320e,
    type: 3}
  m_PrefabInstance: {fileID: 1784523122}
  m_PrefabAsset: {fileID: 0}
--- !u!1001 &659393415
PrefabInstance:
  m_ObjectHideFlags: 0
  serializedVersion: 2
  m_Modification:
    m_TransformParent: {fileID: 301385720}
    m_Modifications:
    - target: {fileID: 400000, guid: 001cf4ddeb2f395479882b09116508a2, type: 3}
      propertyPath: m_LocalPosition.x
      value: -52.9620895
      objectReference: {fileID: 0}
    - target: {fileID: 400000, guid: 001cf4ddeb2f395479882b09116508a2, type: 3}
      propertyPath: m_LocalPosition.y
      value: 9.81537628
      objectReference: {fileID: 0}
    - target: {fileID: 400000, guid: 001cf4ddeb2f395479882b09116508a2, type: 3}
      propertyPath: m_LocalPosition.z
      value: -80.0300827
      objectReference: {fileID: 0}
    - target: {fileID: 400000, guid: 001cf4ddeb2f395479882b09116508a2, type: 3}
      propertyPath: m_LocalRotation.x
      value: 0
      objectReference: {fileID: 0}
    - target: {fileID: 400000, guid: 001cf4ddeb2f395479882b09116508a2, type: 3}
      propertyPath: m_LocalRotation.y
      value: -0
      objectReference: {fileID: 0}
    - target: {fileID: 400000, guid: 001cf4ddeb2f395479882b09116508a2, type: 3}
      propertyPath: m_LocalRotation.z
      value: 0
      objectReference: {fileID: 0}
    - target: {fileID: 400000, guid: 001cf4ddeb2f395479882b09116508a2, type: 3}
      propertyPath: m_LocalRotation.w
      value: 1
      objectReference: {fileID: 0}
    m_RemovedComponents: []
  m_SourcePrefab: {fileID: 100100000, guid: 001cf4ddeb2f395479882b09116508a2, type: 3}
--- !u!1001 &714864085
PrefabInstance:
  m_ObjectHideFlags: 0
  serializedVersion: 2
  m_Modification:
    m_TransformParent: {fileID: 301385720}
    m_Modifications:
    - target: {fileID: 400000, guid: 8cbe172ac5bbd71498240f22a4cc72ff, type: 3}
      propertyPath: m_LocalPosition.x
      value: 56.8063736
      objectReference: {fileID: 0}
    - target: {fileID: 400000, guid: 8cbe172ac5bbd71498240f22a4cc72ff, type: 3}
      propertyPath: m_LocalPosition.y
      value: 9.81537628
      objectReference: {fileID: 0}
    - target: {fileID: 400000, guid: 8cbe172ac5bbd71498240f22a4cc72ff, type: 3}
      propertyPath: m_LocalPosition.z
      value: 74.0654526
      objectReference: {fileID: 0}
    - target: {fileID: 400000, guid: 8cbe172ac5bbd71498240f22a4cc72ff, type: 3}
      propertyPath: m_LocalRotation.x
      value: 0
      objectReference: {fileID: 0}
    - target: {fileID: 400000, guid: 8cbe172ac5bbd71498240f22a4cc72ff, type: 3}
      propertyPath: m_LocalRotation.y
      value: -0
      objectReference: {fileID: 0}
    - target: {fileID: 400000, guid: 8cbe172ac5bbd71498240f22a4cc72ff, type: 3}
      propertyPath: m_LocalRotation.z
      value: 0
      objectReference: {fileID: 0}
    - target: {fileID: 400000, guid: 8cbe172ac5bbd71498240f22a4cc72ff, type: 3}
      propertyPath: m_LocalRotation.w
      value: 1
      objectReference: {fileID: 0}
    m_RemovedComponents: []
  m_SourcePrefab: {fileID: 100100000, guid: 8cbe172ac5bbd71498240f22a4cc72ff, type: 3}
--- !u!4 &734009373 stripped
Transform:
  m_CorrespondingSourceObject: {fileID: 400000, guid: 6302a7ac1164f704c9ab8ab614ba287c,
    type: 3}
  m_PrefabInstance: {fileID: 764071885}
  m_PrefabAsset: {fileID: 0}
--- !u!1001 &748026898
PrefabInstance:
  m_ObjectHideFlags: 0
  serializedVersion: 2
  m_Modification:
    m_TransformParent: {fileID: 301385720}
    m_Modifications:
    - target: {fileID: 400000, guid: 6b478fd1ffae8814ea0216ef598a101f, type: 3}
      propertyPath: m_LocalPosition.x
      value: 44.9196739
      objectReference: {fileID: 0}
    - target: {fileID: 400000, guid: 6b478fd1ffae8814ea0216ef598a101f, type: 3}
      propertyPath: m_LocalPosition.y
      value: 9.81537628
      objectReference: {fileID: 0}
    - target: {fileID: 400000, guid: 6b478fd1ffae8814ea0216ef598a101f, type: 3}
      propertyPath: m_LocalPosition.z
      value: 46.3223648
      objectReference: {fileID: 0}
    - target: {fileID: 400000, guid: 6b478fd1ffae8814ea0216ef598a101f, type: 3}
      propertyPath: m_LocalRotation.x
      value: 0
      objectReference: {fileID: 0}
    - target: {fileID: 400000, guid: 6b478fd1ffae8814ea0216ef598a101f, type: 3}
      propertyPath: m_LocalRotation.y
      value: -0
      objectReference: {fileID: 0}
    - target: {fileID: 400000, guid: 6b478fd1ffae8814ea0216ef598a101f, type: 3}
      propertyPath: m_LocalRotation.z
      value: 0
      objectReference: {fileID: 0}
    - target: {fileID: 400000, guid: 6b478fd1ffae8814ea0216ef598a101f, type: 3}
      propertyPath: m_LocalRotation.w
      value: 1
      objectReference: {fileID: 0}
    m_RemovedComponents: []
  m_SourcePrefab: {fileID: 100100000, guid: 6b478fd1ffae8814ea0216ef598a101f, type: 3}
--- !u!1001 &764071885
PrefabInstance:
  m_ObjectHideFlags: 0
  serializedVersion: 2
  m_Modification:
    m_TransformParent: {fileID: 301385720}
    m_Modifications:
    - target: {fileID: 400000, guid: 6302a7ac1164f704c9ab8ab614ba287c, type: 3}
      propertyPath: m_LocalPosition.x
      value: -18.1771584
      objectReference: {fileID: 0}
    - target: {fileID: 400000, guid: 6302a7ac1164f704c9ab8ab614ba287c, type: 3}
      propertyPath: m_LocalPosition.y
      value: 9.81537628
      objectReference: {fileID: 0}
    - target: {fileID: 400000, guid: 6302a7ac1164f704c9ab8ab614ba287c, type: 3}
      propertyPath: m_LocalPosition.z
      value: 39.2298088
      objectReference: {fileID: 0}
    - target: {fileID: 400000, guid: 6302a7ac1164f704c9ab8ab614ba287c, type: 3}
      propertyPath: m_LocalRotation.x
      value: 0
      objectReference: {fileID: 0}
    - target: {fileID: 400000, guid: 6302a7ac1164f704c9ab8ab614ba287c, type: 3}
      propertyPath: m_LocalRotation.y
      value: -0
      objectReference: {fileID: 0}
    - target: {fileID: 400000, guid: 6302a7ac1164f704c9ab8ab614ba287c, type: 3}
      propertyPath: m_LocalRotation.z
      value: 0
      objectReference: {fileID: 0}
    - target: {fileID: 400000, guid: 6302a7ac1164f704c9ab8ab614ba287c, type: 3}
      propertyPath: m_LocalRotation.w
      value: 1
      objectReference: {fileID: 0}
    m_RemovedComponents: []
  m_SourcePrefab: {fileID: 100100000, guid: 6302a7ac1164f704c9ab8ab614ba287c, type: 3}
--- !u!1001 &804125736
PrefabInstance:
  m_ObjectHideFlags: 0
  serializedVersion: 2
  m_Modification:
    m_TransformParent: {fileID: 301385720}
    m_Modifications:
    - target: {fileID: 400000, guid: 26f5b1ca28950314bb371b97d01d12ec, type: 3}
      propertyPath: m_LocalPosition.x
      value: -2.44258499
      objectReference: {fileID: 0}
    - target: {fileID: 400000, guid: 26f5b1ca28950314bb371b97d01d12ec, type: 3}
      propertyPath: m_LocalPosition.y
      value: 9.81537628
      objectReference: {fileID: 0}
    - target: {fileID: 400000, guid: 26f5b1ca28950314bb371b97d01d12ec, type: 3}
      propertyPath: m_LocalPosition.z
      value: -14.6732121
      objectReference: {fileID: 0}
    - target: {fileID: 400000, guid: 26f5b1ca28950314bb371b97d01d12ec, type: 3}
      propertyPath: m_LocalRotation.x
      value: 0
      objectReference: {fileID: 0}
    - target: {fileID: 400000, guid: 26f5b1ca28950314bb371b97d01d12ec, type: 3}
      propertyPath: m_LocalRotation.y
      value: -0
      objectReference: {fileID: 0}
    - target: {fileID: 400000, guid: 26f5b1ca28950314bb371b97d01d12ec, type: 3}
      propertyPath: m_LocalRotation.z
      value: 0
      objectReference: {fileID: 0}
    - target: {fileID: 400000, guid: 26f5b1ca28950314bb371b97d01d12ec, type: 3}
      propertyPath: m_LocalRotation.w
      value: 1
      objectReference: {fileID: 0}
    m_RemovedComponents: []
  m_SourcePrefab: {fileID: 100100000, guid: 26f5b1ca28950314bb371b97d01d12ec, type: 3}
--- !u!1001 &887873813
PrefabInstance:
  m_ObjectHideFlags: 0
  serializedVersion: 2
  m_Modification:
    m_TransformParent: {fileID: 301385720}
    m_Modifications:
    - target: {fileID: 400000, guid: 0a42a821e915c5249b1f45c11325ce9d, type: 3}
      propertyPath: m_LocalPosition.x
      value: 14.3093872
      objectReference: {fileID: 0}
    - target: {fileID: 400000, guid: 0a42a821e915c5249b1f45c11325ce9d, type: 3}
      propertyPath: m_LocalPosition.y
      value: 9.81537628
      objectReference: {fileID: 0}
    - target: {fileID: 400000, guid: 0a42a821e915c5249b1f45c11325ce9d, type: 3}
      propertyPath: m_LocalPosition.z
      value: 70.9009323
      objectReference: {fileID: 0}
    - target: {fileID: 400000, guid: 0a42a821e915c5249b1f45c11325ce9d, type: 3}
      propertyPath: m_LocalRotation.x
      value: 0
      objectReference: {fileID: 0}
    - target: {fileID: 400000, guid: 0a42a821e915c5249b1f45c11325ce9d, type: 3}
      propertyPath: m_LocalRotation.y
      value: -0
      objectReference: {fileID: 0}
    - target: {fileID: 400000, guid: 0a42a821e915c5249b1f45c11325ce9d, type: 3}
      propertyPath: m_LocalRotation.z
      value: 0
      objectReference: {fileID: 0}
    - target: {fileID: 400000, guid: 0a42a821e915c5249b1f45c11325ce9d, type: 3}
      propertyPath: m_LocalRotation.w
      value: 1
      objectReference: {fileID: 0}
    m_RemovedComponents: []
  m_SourcePrefab: {fileID: 100100000, guid: 0a42a821e915c5249b1f45c11325ce9d, type: 3}
--- !u!1001 &898555075
PrefabInstance:
  m_ObjectHideFlags: 0
  serializedVersion: 2
  m_Modification:
    m_TransformParent: {fileID: 301385720}
    m_Modifications:
    - target: {fileID: 400000, guid: 4a8160bb967261540a58a9a1dd437447, type: 3}
      propertyPath: m_LocalPosition.x
      value: 53.9871902
      objectReference: {fileID: 0}
    - target: {fileID: 400000, guid: 4a8160bb967261540a58a9a1dd437447, type: 3}
      propertyPath: m_LocalPosition.y
      value: 9.81537628
      objectReference: {fileID: 0}
    - target: {fileID: 400000, guid: 4a8160bb967261540a58a9a1dd437447, type: 3}
      propertyPath: m_LocalPosition.z
      value: -110.377556
      objectReference: {fileID: 0}
    - target: {fileID: 400000, guid: 4a8160bb967261540a58a9a1dd437447, type: 3}
      propertyPath: m_LocalRotation.x
      value: 0
      objectReference: {fileID: 0}
    - target: {fileID: 400000, guid: 4a8160bb967261540a58a9a1dd437447, type: 3}
      propertyPath: m_LocalRotation.y
      value: -0
      objectReference: {fileID: 0}
    - target: {fileID: 400000, guid: 4a8160bb967261540a58a9a1dd437447, type: 3}
      propertyPath: m_LocalRotation.z
      value: 0
      objectReference: {fileID: 0}
    - target: {fileID: 400000, guid: 4a8160bb967261540a58a9a1dd437447, type: 3}
      propertyPath: m_LocalRotation.w
      value: 1
      objectReference: {fileID: 0}
    m_RemovedComponents: []
  m_SourcePrefab: {fileID: 100100000, guid: 4a8160bb967261540a58a9a1dd437447, type: 3}
--- !u!4 &905526613 stripped
Transform:
  m_CorrespondingSourceObject: {fileID: 400000, guid: 3fcb776028c04b145b9a759f16bfb29e,
    type: 3}
  m_PrefabInstance: {fileID: 1319945733}
  m_PrefabAsset: {fileID: 0}
--- !u!1001 &910379217
PrefabInstance:
  m_ObjectHideFlags: 0
  serializedVersion: 2
  m_Modification:
    m_TransformParent: {fileID: 301385720}
    m_Modifications:
    - target: {fileID: 400000, guid: 579a64902e3165b4fad852b0d79132c5, type: 3}
      propertyPath: m_LocalPosition.x
      value: 53.9862137
      objectReference: {fileID: 0}
    - target: {fileID: 400000, guid: 579a64902e3165b4fad852b0d79132c5, type: 3}
      propertyPath: m_LocalPosition.y
      value: 9.81537628
      objectReference: {fileID: 0}
    - target: {fileID: 400000, guid: 579a64902e3165b4fad852b0d79132c5, type: 3}
      propertyPath: m_LocalPosition.z
      value: -79.753746
      objectReference: {fileID: 0}
    - target: {fileID: 400000, guid: 579a64902e3165b4fad852b0d79132c5, type: 3}
      propertyPath: m_LocalRotation.x
      value: 0
      objectReference: {fileID: 0}
    - target: {fileID: 400000, guid: 579a64902e3165b4fad852b0d79132c5, type: 3}
      propertyPath: m_LocalRotation.y
      value: -0
      objectReference: {fileID: 0}
    - target: {fileID: 400000, guid: 579a64902e3165b4fad852b0d79132c5, type: 3}
      propertyPath: m_LocalRotation.z
      value: 0
      objectReference: {fileID: 0}
    - target: {fileID: 400000, guid: 579a64902e3165b4fad852b0d79132c5, type: 3}
      propertyPath: m_LocalRotation.w
      value: 1
      objectReference: {fileID: 0}
    m_RemovedComponents: []
  m_SourcePrefab: {fileID: 100100000, guid: 579a64902e3165b4fad852b0d79132c5, type: 3}
--- !u!4 &912954701 stripped
Transform:
  m_CorrespondingSourceObject: {fileID: 400000, guid: 93c53fbaa649d054d8ab9f50fc853c5e,
    type: 3}
  m_PrefabInstance: {fileID: 186795470}
  m_PrefabAsset: {fileID: 0}
--- !u!1001 &922272524
PrefabInstance:
  m_ObjectHideFlags: 0
  serializedVersion: 2
  m_Modification:
    m_TransformParent: {fileID: 301385720}
    m_Modifications:
    - target: {fileID: 400000, guid: 23336e1fec3046f43a692301ea78cc94, type: 3}
      propertyPath: m_LocalPosition.x
      value: -19.1755791
      objectReference: {fileID: 0}
    - target: {fileID: 400000, guid: 23336e1fec3046f43a692301ea78cc94, type: 3}
      propertyPath: m_LocalPosition.y
      value: 9.81537628
      objectReference: {fileID: 0}
    - target: {fileID: 400000, guid: 23336e1fec3046f43a692301ea78cc94, type: 3}
      propertyPath: m_LocalPosition.z
      value: 34.0732422
      objectReference: {fileID: 0}
    - target: {fileID: 400000, guid: 23336e1fec3046f43a692301ea78cc94, type: 3}
      propertyPath: m_LocalRotation.x
      value: 0
      objectReference: {fileID: 0}
    - target: {fileID: 400000, guid: 23336e1fec3046f43a692301ea78cc94, type: 3}
      propertyPath: m_LocalRotation.y
      value: -0
      objectReference: {fileID: 0}
    - target: {fileID: 400000, guid: 23336e1fec3046f43a692301ea78cc94, type: 3}
      propertyPath: m_LocalRotation.z
      value: 0
      objectReference: {fileID: 0}
    - target: {fileID: 400000, guid: 23336e1fec3046f43a692301ea78cc94, type: 3}
      propertyPath: m_LocalRotation.w
      value: 1
      objectReference: {fileID: 0}
    m_RemovedComponents: []
  m_SourcePrefab: {fileID: 100100000, guid: 23336e1fec3046f43a692301ea78cc94, type: 3}
--- !u!4 &924361497 stripped
Transform:
  m_CorrespondingSourceObject: {fileID: 400000, guid: aee91b2c56683c84f8d963a3be15a45a,
    type: 3}
  m_PrefabInstance: {fileID: 3946756}
  m_PrefabAsset: {fileID: 0}
--- !u!4 &946889519 stripped
Transform:
  m_CorrespondingSourceObject: {fileID: 400000, guid: 195c7949ea32c79499b325568243c133,
    type: 3}
  m_PrefabInstance: {fileID: 1360232924}
  m_PrefabAsset: {fileID: 0}
--- !u!4 &952864333 stripped
Transform:
  m_CorrespondingSourceObject: {fileID: 400000, guid: 002597fa7916f644fbd4cea5f26abf38,
    type: 3}
  m_PrefabInstance: {fileID: 1600256995}
  m_PrefabAsset: {fileID: 0}
--- !u!4 &960219223 stripped
Transform:
  m_CorrespondingSourceObject: {fileID: 400000, guid: 150e74af2c5088c48a32d7237ba4a43c,
    type: 3}
  m_PrefabInstance: {fileID: 337132434}
  m_PrefabAsset: {fileID: 0}
--- !u!1001 &1054817469
PrefabInstance:
  m_ObjectHideFlags: 0
  serializedVersion: 2
  m_Modification:
    m_TransformParent: {fileID: 301385720}
    m_Modifications:
    - target: {fileID: 400000, guid: 667326be87ba51e499a08074a6d6c4ff, type: 3}
      propertyPath: m_LocalPosition.x
      value: -15.7196198
      objectReference: {fileID: 0}
    - target: {fileID: 400000, guid: 667326be87ba51e499a08074a6d6c4ff, type: 3}
      propertyPath: m_LocalPosition.y
      value: 9.81537628
      objectReference: {fileID: 0}
    - target: {fileID: 400000, guid: 667326be87ba51e499a08074a6d6c4ff, type: 3}
      propertyPath: m_LocalPosition.z
      value: -109.842903
      objectReference: {fileID: 0}
    - target: {fileID: 400000, guid: 667326be87ba51e499a08074a6d6c4ff, type: 3}
      propertyPath: m_LocalRotation.x
      value: 0
      objectReference: {fileID: 0}
    - target: {fileID: 400000, guid: 667326be87ba51e499a08074a6d6c4ff, type: 3}
      propertyPath: m_LocalRotation.y
      value: -0
      objectReference: {fileID: 0}
    - target: {fileID: 400000, guid: 667326be87ba51e499a08074a6d6c4ff, type: 3}
      propertyPath: m_LocalRotation.z
      value: 0
      objectReference: {fileID: 0}
    - target: {fileID: 400000, guid: 667326be87ba51e499a08074a6d6c4ff, type: 3}
      propertyPath: m_LocalRotation.w
      value: 1
      objectReference: {fileID: 0}
    m_RemovedComponents: []
  m_SourcePrefab: {fileID: 100100000, guid: 667326be87ba51e499a08074a6d6c4ff, type: 3}
--- !u!1001 &1107091489
PrefabInstance:
  m_ObjectHideFlags: 0
  serializedVersion: 2
  m_Modification:
    m_TransformParent: {fileID: 301385720}
    m_Modifications:
    - target: {fileID: 400000, guid: 11e4e4fd277d9054d9819b682ac1786f, type: 3}
      propertyPath: m_LocalPosition.x
      value: -40.4860687
      objectReference: {fileID: 0}
    - target: {fileID: 400000, guid: 11e4e4fd277d9054d9819b682ac1786f, type: 3}
      propertyPath: m_LocalPosition.y
      value: 9.81537628
      objectReference: {fileID: 0}
    - target: {fileID: 400000, guid: 11e4e4fd277d9054d9819b682ac1786f, type: 3}
      propertyPath: m_LocalPosition.z
      value: -110.506615
      objectReference: {fileID: 0}
    - target: {fileID: 400000, guid: 11e4e4fd277d9054d9819b682ac1786f, type: 3}
      propertyPath: m_LocalRotation.x
      value: 0
      objectReference: {fileID: 0}
    - target: {fileID: 400000, guid: 11e4e4fd277d9054d9819b682ac1786f, type: 3}
      propertyPath: m_LocalRotation.y
      value: -0
      objectReference: {fileID: 0}
    - target: {fileID: 400000, guid: 11e4e4fd277d9054d9819b682ac1786f, type: 3}
      propertyPath: m_LocalRotation.z
      value: 0
      objectReference: {fileID: 0}
    - target: {fileID: 400000, guid: 11e4e4fd277d9054d9819b682ac1786f, type: 3}
      propertyPath: m_LocalRotation.w
      value: 1
      objectReference: {fileID: 0}
    m_RemovedComponents: []
  m_SourcePrefab: {fileID: 100100000, guid: 11e4e4fd277d9054d9819b682ac1786f, type: 3}
--- !u!4 &1156902684 stripped
Transform:
  m_CorrespondingSourceObject: {fileID: 400000, guid: 11e4e4fd277d9054d9819b682ac1786f,
    type: 3}
  m_PrefabInstance: {fileID: 1107091489}
  m_PrefabAsset: {fileID: 0}
--- !u!4 &1178766411 stripped
Transform:
  m_CorrespondingSourceObject: {fileID: 400000, guid: 26f5b1ca28950314bb371b97d01d12ec,
    type: 3}
  m_PrefabInstance: {fileID: 804125736}
  m_PrefabAsset: {fileID: 0}
--- !u!4 &1237321566 stripped
Transform:
  m_CorrespondingSourceObject: {fileID: 400000, guid: 061649ebce6383f4481158f40001d210,
    type: 3}
  m_PrefabInstance: {fileID: 299963178}
  m_PrefabAsset: {fileID: 0}
--- !u!4 &1289808073 stripped
Transform:
  m_CorrespondingSourceObject: {fileID: 400000, guid: 001cf4ddeb2f395479882b09116508a2,
    type: 3}
  m_PrefabInstance: {fileID: 659393415}
  m_PrefabAsset: {fileID: 0}
--- !u!1001 &1319945733
PrefabInstance:
  m_ObjectHideFlags: 0
  serializedVersion: 2
  m_Modification:
    m_TransformParent: {fileID: 301385720}
    m_Modifications:
    - target: {fileID: 400000, guid: 3fcb776028c04b145b9a759f16bfb29e, type: 3}
      propertyPath: m_LocalPosition.x
      value: 50.2853622
      objectReference: {fileID: 0}
    - target: {fileID: 400000, guid: 3fcb776028c04b145b9a759f16bfb29e, type: 3}
      propertyPath: m_LocalPosition.y
      value: 9.81537628
      objectReference: {fileID: 0}
    - target: {fileID: 400000, guid: 3fcb776028c04b145b9a759f16bfb29e, type: 3}
      propertyPath: m_LocalPosition.z
      value: 17.0366879
      objectReference: {fileID: 0}
    - target: {fileID: 400000, guid: 3fcb776028c04b145b9a759f16bfb29e, type: 3}
      propertyPath: m_LocalRotation.x
      value: 0
      objectReference: {fileID: 0}
    - target: {fileID: 400000, guid: 3fcb776028c04b145b9a759f16bfb29e, type: 3}
      propertyPath: m_LocalRotation.y
      value: -0
      objectReference: {fileID: 0}
    - target: {fileID: 400000, guid: 3fcb776028c04b145b9a759f16bfb29e, type: 3}
      propertyPath: m_LocalRotation.z
      value: 0
      objectReference: {fileID: 0}
    - target: {fileID: 400000, guid: 3fcb776028c04b145b9a759f16bfb29e, type: 3}
      propertyPath: m_LocalRotation.w
      value: 1
      objectReference: {fileID: 0}
    m_RemovedComponents: []
  m_SourcePrefab: {fileID: 100100000, guid: 3fcb776028c04b145b9a759f16bfb29e, type: 3}
--- !u!1001 &1327620712
PrefabInstance:
  m_ObjectHideFlags: 0
  serializedVersion: 2
  m_Modification:
    m_TransformParent: {fileID: 301385720}
    m_Modifications:
    - target: {fileID: 400000, guid: b4348070e3412c34d95c31d1473ac8fc, type: 3}
      propertyPath: m_LocalPosition.x
      value: 19.886673
      objectReference: {fileID: 0}
    - target: {fileID: 400000, guid: b4348070e3412c34d95c31d1473ac8fc, type: 3}
      propertyPath: m_LocalPosition.y
      value: 9.81537628
      objectReference: {fileID: 0}
    - target: {fileID: 400000, guid: b4348070e3412c34d95c31d1473ac8fc, type: 3}
      propertyPath: m_LocalPosition.z
      value: -16.074297
      objectReference: {fileID: 0}
    - target: {fileID: 400000, guid: b4348070e3412c34d95c31d1473ac8fc, type: 3}
      propertyPath: m_LocalRotation.x
      value: 0
      objectReference: {fileID: 0}
    - target: {fileID: 400000, guid: b4348070e3412c34d95c31d1473ac8fc, type: 3}
      propertyPath: m_LocalRotation.y
      value: -0
      objectReference: {fileID: 0}
    - target: {fileID: 400000, guid: b4348070e3412c34d95c31d1473ac8fc, type: 3}
      propertyPath: m_LocalRotation.z
      value: 0
      objectReference: {fileID: 0}
    - target: {fileID: 400000, guid: b4348070e3412c34d95c31d1473ac8fc, type: 3}
      propertyPath: m_LocalRotation.w
      value: 1
      objectReference: {fileID: 0}
    m_RemovedComponents: []
  m_SourcePrefab: {fileID: 100100000, guid: b4348070e3412c34d95c31d1473ac8fc, type: 3}
--- !u!4 &1331158681 stripped
Transform:
  m_CorrespondingSourceObject: {fileID: 400000, guid: 08d6903b8c8543c4e91fc6148589813e,
    type: 3}
  m_PrefabInstance: {fileID: 1622176007}
  m_PrefabAsset: {fileID: 0}
--- !u!1001 &1360232924
PrefabInstance:
  m_ObjectHideFlags: 0
  serializedVersion: 2
  m_Modification:
    m_TransformParent: {fileID: 301385720}
    m_Modifications:
    - target: {fileID: 400000, guid: 195c7949ea32c79499b325568243c133, type: 3}
      propertyPath: m_LocalPosition.x
      value: 12.7247391
      objectReference: {fileID: 0}
    - target: {fileID: 400000, guid: 195c7949ea32c79499b325568243c133, type: 3}
      propertyPath: m_LocalPosition.y
      value: 9.81537628
      objectReference: {fileID: 0}
    - target: {fileID: 400000, guid: 195c7949ea32c79499b325568243c133, type: 3}
      propertyPath: m_LocalPosition.z
      value: -44.4023132
      objectReference: {fileID: 0}
    - target: {fileID: 400000, guid: 195c7949ea32c79499b325568243c133, type: 3}
      propertyPath: m_LocalRotation.x
      value: 0
      objectReference: {fileID: 0}
    - target: {fileID: 400000, guid: 195c7949ea32c79499b325568243c133, type: 3}
      propertyPath: m_LocalRotation.y
      value: -0
      objectReference: {fileID: 0}
    - target: {fileID: 400000, guid: 195c7949ea32c79499b325568243c133, type: 3}
      propertyPath: m_LocalRotation.z
      value: 0
      objectReference: {fileID: 0}
    - target: {fileID: 400000, guid: 195c7949ea32c79499b325568243c133, type: 3}
      propertyPath: m_LocalRotation.w
      value: 1
      objectReference: {fileID: 0}
    m_RemovedComponents: []
  m_SourcePrefab: {fileID: 100100000, guid: 195c7949ea32c79499b325568243c133, type: 3}
--- !u!1001 &1364606625
PrefabInstance:
  m_ObjectHideFlags: 0
  serializedVersion: 2
  m_Modification:
    m_TransformParent: {fileID: 301385720}
    m_Modifications:
    - target: {fileID: 400000, guid: df357f8e3b908cc46b82c2b5d3c12885, type: 3}
      propertyPath: m_LocalPosition.x
      value: -15.214325
      objectReference: {fileID: 0}
    - target: {fileID: 400000, guid: df357f8e3b908cc46b82c2b5d3c12885, type: 3}
      propertyPath: m_LocalPosition.y
      value: 9.81537628
      objectReference: {fileID: 0}
    - target: {fileID: 400000, guid: df357f8e3b908cc46b82c2b5d3c12885, type: 3}
      propertyPath: m_LocalPosition.z
      value: 13.5042219
      objectReference: {fileID: 0}
    - target: {fileID: 400000, guid: df357f8e3b908cc46b82c2b5d3c12885, type: 3}
      propertyPath: m_LocalRotation.x
      value: 0
      objectReference: {fileID: 0}
    - target: {fileID: 400000, guid: df357f8e3b908cc46b82c2b5d3c12885, type: 3}
      propertyPath: m_LocalRotation.y
      value: -0
      objectReference: {fileID: 0}
    - target: {fileID: 400000, guid: df357f8e3b908cc46b82c2b5d3c12885, type: 3}
      propertyPath: m_LocalRotation.z
      value: 0
      objectReference: {fileID: 0}
    - target: {fileID: 400000, guid: df357f8e3b908cc46b82c2b5d3c12885, type: 3}
      propertyPath: m_LocalRotation.w
      value: 1
      objectReference: {fileID: 0}
    m_RemovedComponents: []
  m_SourcePrefab: {fileID: 100100000, guid: df357f8e3b908cc46b82c2b5d3c12885, type: 3}
--- !u!4 &1369721980 stripped
Transform:
  m_CorrespondingSourceObject: {fileID: 400000, guid: adcbc927843cb464696a5e0eafc874d6,
    type: 3}
  m_PrefabInstance: {fileID: 507675344}
  m_PrefabAsset: {fileID: 0}
--- !u!4 &1391266825 stripped
Transform:
  m_CorrespondingSourceObject: {fileID: 400000, guid: 7e9364a81e9ba6a4a873d3df000ecf76,
    type: 3}
  m_PrefabInstance: {fileID: 1419455309}
  m_PrefabAsset: {fileID: 0}
--- !u!1 &1402731726
GameObject:
  m_ObjectHideFlags: 0
  m_CorrespondingSourceObject: {fileID: 0}
  m_PrefabInstance: {fileID: 0}
  m_PrefabAsset: {fileID: 0}
  serializedVersion: 6
  m_Component:
  - component: {fileID: 1402731731}
  - component: {fileID: 1402731730}
  - component: {fileID: 1402731729}
  - component: {fileID: 1402731728}
  - component: {fileID: 1402731727}
  m_Layer: 0
  m_Name: Main Camera
  m_TagString: MainCamera
  m_Icon: {fileID: 0}
  m_NavMeshLayer: 0
  m_StaticEditorFlags: 0
  m_IsActive: 1
--- !u!81 &1402731727
AudioListener:
  m_ObjectHideFlags: 0
  m_CorrespondingSourceObject: {fileID: 0}
  m_PrefabInstance: {fileID: 0}
  m_PrefabAsset: {fileID: 0}
  m_GameObject: {fileID: 1402731726}
  m_Enabled: 1
--- !u!124 &1402731728
Behaviour:
  m_ObjectHideFlags: 0
  m_CorrespondingSourceObject: {fileID: 0}
  m_PrefabInstance: {fileID: 0}
  m_PrefabAsset: {fileID: 0}
  m_GameObject: {fileID: 1402731726}
  m_Enabled: 1
--- !u!92 &1402731729
Behaviour:
  m_ObjectHideFlags: 0
  m_CorrespondingSourceObject: {fileID: 0}
  m_PrefabInstance: {fileID: 0}
  m_PrefabAsset: {fileID: 0}
  m_GameObject: {fileID: 1402731726}
  m_Enabled: 1
--- !u!20 &1402731730
Camera:
  m_ObjectHideFlags: 0
  m_CorrespondingSourceObject: {fileID: 0}
  m_PrefabInstance: {fileID: 0}
  m_PrefabAsset: {fileID: 0}
  m_GameObject: {fileID: 1402731726}
  m_Enabled: 1
  serializedVersion: 2
  m_ClearFlags: 1
  m_BackGroundColor: {r: 0.19215687, g: 0.3019608, b: 0.4745098, a: 0.019607844}
  m_projectionMatrixMode: 1
  m_SensorSize: {x: 36, y: 24}
  m_LensShift: {x: 0, y: 0}
  m_GateFitMode: 2
  m_FocalLength: 50
  m_NormalizedViewPortRect:
    serializedVersion: 2
    x: 0
    y: 0
    width: 1
    height: 1
  near clip plane: 0.3
  far clip plane: 1000
  field of view: 60
  orthographic: 0
  orthographic size: 100
  m_Depth: -1
  m_CullingMask:
    serializedVersion: 2
    m_Bits: 4294967295
  m_RenderingPath: -1
  m_TargetTexture: {fileID: 0}
  m_TargetDisplay: 0
  m_TargetEye: 3
  m_HDR: 0
  m_AllowMSAA: 1
  m_AllowDynamicResolution: 0
  m_ForceIntoRT: 0
  m_OcclusionCulling: 1
  m_StereoConvergence: 10
  m_StereoSeparation: 0.022
--- !u!4 &1402731731
Transform:
  m_ObjectHideFlags: 0
  m_CorrespondingSourceObject: {fileID: 0}
  m_PrefabInstance: {fileID: 0}
  m_PrefabAsset: {fileID: 0}
  m_GameObject: {fileID: 1402731726}
  m_LocalRotation: {x: 0, y: 0, z: 0, w: 1}
  m_LocalPosition: {x: 0, y: 1, z: -10}
  m_LocalScale: {x: 1, y: 1, z: 1}
  m_Children: []
  m_Father: {fileID: 0}
  m_RootOrder: 1
  m_LocalEulerAnglesHint: {x: 0, y: 0, z: 0}
--- !u!1001 &1419455309
PrefabInstance:
  m_ObjectHideFlags: 0
  serializedVersion: 2
  m_Modification:
    m_TransformParent: {fileID: 301385720}
    m_Modifications:
    - target: {fileID: 400000, guid: 7e9364a81e9ba6a4a873d3df000ecf76, type: 3}
      propertyPath: m_LocalPosition.x
      value: -15.7196198
      objectReference: {fileID: 0}
    - target: {fileID: 400000, guid: 7e9364a81e9ba6a4a873d3df000ecf76, type: 3}
      propertyPath: m_LocalPosition.y
      value: 9.81537628
      objectReference: {fileID: 0}
    - target: {fileID: 400000, guid: 7e9364a81e9ba6a4a873d3df000ecf76, type: 3}
      propertyPath: m_LocalPosition.z
      value: -76.7400742
      objectReference: {fileID: 0}
    - target: {fileID: 400000, guid: 7e9364a81e9ba6a4a873d3df000ecf76, type: 3}
      propertyPath: m_LocalRotation.x
      value: 0
      objectReference: {fileID: 0}
    - target: {fileID: 400000, guid: 7e9364a81e9ba6a4a873d3df000ecf76, type: 3}
      propertyPath: m_LocalRotation.y
      value: -0
      objectReference: {fileID: 0}
    - target: {fileID: 400000, guid: 7e9364a81e9ba6a4a873d3df000ecf76, type: 3}
      propertyPath: m_LocalRotation.z
      value: 0
      objectReference: {fileID: 0}
    - target: {fileID: 400000, guid: 7e9364a81e9ba6a4a873d3df000ecf76, type: 3}
      propertyPath: m_LocalRotation.w
      value: 1
      objectReference: {fileID: 0}
    m_RemovedComponents: []
  m_SourcePrefab: {fileID: 100100000, guid: 7e9364a81e9ba6a4a873d3df000ecf76, type: 3}
--- !u!1001 &1436037932
PrefabInstance:
  m_ObjectHideFlags: 0
  serializedVersion: 2
  m_Modification:
    m_TransformParent: {fileID: 301385720}
    m_Modifications:
    - target: {fileID: 400000, guid: 724e2c0944d598a4687ac169ae627cfc, type: 3}
      propertyPath: m_LocalPosition.x
      value: -8.0946579
      objectReference: {fileID: 0}
    - target: {fileID: 400000, guid: 724e2c0944d598a4687ac169ae627cfc, type: 3}
      propertyPath: m_LocalPosition.y
      value: 9.81537628
      objectReference: {fileID: 0}
    - target: {fileID: 400000, guid: 724e2c0944d598a4687ac169ae627cfc, type: 3}
      propertyPath: m_LocalPosition.z
      value: 64.6880417
      objectReference: {fileID: 0}
    - target: {fileID: 400000, guid: 724e2c0944d598a4687ac169ae627cfc, type: 3}
      propertyPath: m_LocalRotation.x
      value: 0
      objectReference: {fileID: 0}
    - target: {fileID: 400000, guid: 724e2c0944d598a4687ac169ae627cfc, type: 3}
      propertyPath: m_LocalRotation.y
      value: -0
      objectReference: {fileID: 0}
    - target: {fileID: 400000, guid: 724e2c0944d598a4687ac169ae627cfc, type: 3}
      propertyPath: m_LocalRotation.z
      value: 0
      objectReference: {fileID: 0}
    - target: {fileID: 400000, guid: 724e2c0944d598a4687ac169ae627cfc, type: 3}
      propertyPath: m_LocalRotation.w
      value: 1
      objectReference: {fileID: 0}
    m_RemovedComponents: []
  m_SourcePrefab: {fileID: 100100000, guid: 724e2c0944d598a4687ac169ae627cfc, type: 3}
--- !u!4 &1447091459 stripped
Transform:
  m_CorrespondingSourceObject: {fileID: 400000, guid: df357f8e3b908cc46b82c2b5d3c12885,
    type: 3}
  m_PrefabInstance: {fileID: 1364606625}
  m_PrefabAsset: {fileID: 0}
--- !u!4 &1495359114 stripped
Transform:
  m_CorrespondingSourceObject: {fileID: 400000, guid: b7fbf663444dcad409bfc0978b644503,
    type: 3}
  m_PrefabInstance: {fileID: 2042334005}
  m_PrefabAsset: {fileID: 0}
--- !u!4 &1537486339 stripped
Transform:
  m_CorrespondingSourceObject: {fileID: 400000, guid: 7e0c5a1f50b45ec42bb7652479e23810,
    type: 3}
  m_PrefabInstance: {fileID: 2042290461}
  m_PrefabAsset: {fileID: 0}
--- !u!1001 &1600256995
PrefabInstance:
  m_ObjectHideFlags: 0
  serializedVersion: 2
  m_Modification:
    m_TransformParent: {fileID: 301385720}
    m_Modifications:
    - target: {fileID: 400000, guid: 002597fa7916f644fbd4cea5f26abf38, type: 3}
      propertyPath: m_LocalPosition.x
      value: -52.9125671
      objectReference: {fileID: 0}
    - target: {fileID: 400000, guid: 002597fa7916f644fbd4cea5f26abf38, type: 3}
      propertyPath: m_LocalPosition.y
      value: 9.81537628
      objectReference: {fileID: 0}
    - target: {fileID: 400000, guid: 002597fa7916f644fbd4cea5f26abf38, type: 3}
      propertyPath: m_LocalPosition.z
      value: -44.7915726
      objectReference: {fileID: 0}
    - target: {fileID: 400000, guid: 002597fa7916f644fbd4cea5f26abf38, type: 3}
      propertyPath: m_LocalRotation.x
      value: 0
      objectReference: {fileID: 0}
    - target: {fileID: 400000, guid: 002597fa7916f644fbd4cea5f26abf38, type: 3}
      propertyPath: m_LocalRotation.y
      value: -0
      objectReference: {fileID: 0}
    - target: {fileID: 400000, guid: 002597fa7916f644fbd4cea5f26abf38, type: 3}
      propertyPath: m_LocalRotation.z
      value: 0
      objectReference: {fileID: 0}
    - target: {fileID: 400000, guid: 002597fa7916f644fbd4cea5f26abf38, type: 3}
      propertyPath: m_LocalRotation.w
      value: 1
      objectReference: {fileID: 0}
    m_RemovedComponents: []
  m_SourcePrefab: {fileID: 100100000, guid: 002597fa7916f644fbd4cea5f26abf38, type: 3}
--- !u!1001 &1622176007
PrefabInstance:
  m_ObjectHideFlags: 0
  serializedVersion: 2
  m_Modification:
    m_TransformParent: {fileID: 301385720}
    m_Modifications:
    - target: {fileID: 400000, guid: 08d6903b8c8543c4e91fc6148589813e, type: 3}
      propertyPath: m_LocalPosition.x
      value: 13.4101982
      objectReference: {fileID: 0}
    - target: {fileID: 400000, guid: 08d6903b8c8543c4e91fc6148589813e, type: 3}
      propertyPath: m_LocalPosition.y
      value: 9.81537628
      objectReference: {fileID: 0}
    - target: {fileID: 400000, guid: 08d6903b8c8543c4e91fc6148589813e, type: 3}
      propertyPath: m_LocalPosition.z
      value: 52.1287308
      objectReference: {fileID: 0}
    - target: {fileID: 400000, guid: 08d6903b8c8543c4e91fc6148589813e, type: 3}
      propertyPath: m_LocalRotation.x
      value: 0
      objectReference: {fileID: 0}
    - target: {fileID: 400000, guid: 08d6903b8c8543c4e91fc6148589813e, type: 3}
      propertyPath: m_LocalRotation.y
      value: -0
      objectReference: {fileID: 0}
    - target: {fileID: 400000, guid: 08d6903b8c8543c4e91fc6148589813e, type: 3}
      propertyPath: m_LocalRotation.z
      value: 0
      objectReference: {fileID: 0}
    - target: {fileID: 400000, guid: 08d6903b8c8543c4e91fc6148589813e, type: 3}
      propertyPath: m_LocalRotation.w
      value: 1
      objectReference: {fileID: 0}
    m_RemovedComponents: []
  m_SourcePrefab: {fileID: 100100000, guid: 08d6903b8c8543c4e91fc6148589813e, type: 3}
--- !u!4 &1625437286 stripped
Transform:
  m_CorrespondingSourceObject: {fileID: 400000, guid: b4348070e3412c34d95c31d1473ac8fc,
    type: 3}
  m_PrefabInstance: {fileID: 1327620712}
  m_PrefabAsset: {fileID: 0}
--- !u!1001 &1628099480
PrefabInstance:
  m_ObjectHideFlags: 0
  serializedVersion: 2
  m_Modification:
    m_TransformParent: {fileID: 301385720}
    m_Modifications:
    - target: {fileID: 400000, guid: d4de0a989e8a5164b9b72abda47dc777, type: 3}
      propertyPath: m_LocalPosition.x
      value: 33.7313995
      objectReference: {fileID: 0}
    - target: {fileID: 400000, guid: d4de0a989e8a5164b9b72abda47dc777, type: 3}
      propertyPath: m_LocalPosition.y
      value: 9.81537628
      objectReference: {fileID: 0}
    - target: {fileID: 400000, guid: d4de0a989e8a5164b9b72abda47dc777, type: 3}
      propertyPath: m_LocalPosition.z
      value: 45.6474113
      objectReference: {fileID: 0}
    - target: {fileID: 400000, guid: d4de0a989e8a5164b9b72abda47dc777, type: 3}
      propertyPath: m_LocalRotation.x
      value: 0
      objectReference: {fileID: 0}
    - target: {fileID: 400000, guid: d4de0a989e8a5164b9b72abda47dc777, type: 3}
      propertyPath: m_LocalRotation.y
      value: -0
      objectReference: {fileID: 0}
    - target: {fileID: 400000, guid: d4de0a989e8a5164b9b72abda47dc777, type: 3}
      propertyPath: m_LocalRotation.z
      value: 0
      objectReference: {fileID: 0}
    - target: {fileID: 400000, guid: d4de0a989e8a5164b9b72abda47dc777, type: 3}
      propertyPath: m_LocalRotation.w
      value: 1
      objectReference: {fileID: 0}
    m_RemovedComponents: []
  m_SourcePrefab: {fileID: 100100000, guid: d4de0a989e8a5164b9b72abda47dc777, type: 3}
--- !u!4 &1651718377 stripped
Transform:
  m_CorrespondingSourceObject: {fileID: 400000, guid: 0a42a821e915c5249b1f45c11325ce9d,
    type: 3}
  m_PrefabInstance: {fileID: 887873813}
  m_PrefabAsset: {fileID: 0}
--- !u!4 &1690309760 stripped
Transform:
  m_CorrespondingSourceObject: {fileID: 400000, guid: e2f4b4a8e48a55c41a713ab188b635b8,
    type: 3}
  m_PrefabInstance: {fileID: 346651118}
  m_PrefabAsset: {fileID: 0}
--- !u!1001 &1784523122
PrefabInstance:
  m_ObjectHideFlags: 0
  serializedVersion: 2
  m_Modification:
    m_TransformParent: {fileID: 301385720}
    m_Modifications:
    - target: {fileID: 400000, guid: fdfd9a22632f9724097a54dfbf28320e, type: 3}
      propertyPath: m_LocalPosition.x
      value: 44.6022835
      objectReference: {fileID: 0}
    - target: {fileID: 400000, guid: fdfd9a22632f9724097a54dfbf28320e, type: 3}
      propertyPath: m_LocalPosition.y
      value: 9.81537628
      objectReference: {fileID: 0}
    - target: {fileID: 400000, guid: fdfd9a22632f9724097a54dfbf28320e, type: 3}
      propertyPath: m_LocalPosition.z
      value: 73.4358063
      objectReference: {fileID: 0}
    - target: {fileID: 400000, guid: fdfd9a22632f9724097a54dfbf28320e, type: 3}
      propertyPath: m_LocalRotation.x
      value: 0
      objectReference: {fileID: 0}
    - target: {fileID: 400000, guid: fdfd9a22632f9724097a54dfbf28320e, type: 3}
      propertyPath: m_LocalRotation.y
      value: -0
      objectReference: {fileID: 0}
    - target: {fileID: 400000, guid: fdfd9a22632f9724097a54dfbf28320e, type: 3}
      propertyPath: m_LocalRotation.z
      value: 0
      objectReference: {fileID: 0}
    - target: {fileID: 400000, guid: fdfd9a22632f9724097a54dfbf28320e, type: 3}
      propertyPath: m_LocalRotation.w
      value: 1
      objectReference: {fileID: 0}
    m_RemovedComponents: []
  m_SourcePrefab: {fileID: 100100000, guid: fdfd9a22632f9724097a54dfbf28320e, type: 3}
--- !u!4 &1786211416 stripped
Transform:
  m_CorrespondingSourceObject: {fileID: 400000, guid: 115d50560fda56143953f54ecec6510f,
    type: 3}
  m_PrefabInstance: {fileID: 43323830}
  m_PrefabAsset: {fileID: 0}
--- !u!4 &1796990709 stripped
Transform:
  m_CorrespondingSourceObject: {fileID: 400000, guid: 579a64902e3165b4fad852b0d79132c5,
    type: 3}
  m_PrefabInstance: {fileID: 910379217}
  m_PrefabAsset: {fileID: 0}
--- !u!1001 &1854113879
PrefabInstance:
  m_ObjectHideFlags: 0
  serializedVersion: 2
  m_Modification:
    m_TransformParent: {fileID: 301385720}
    m_Modifications:
    - target: {fileID: 400000, guid: 63a4e6fd0fb672941a41a90dd6f47aca, type: 3}
      propertyPath: m_LocalPosition.x
      value: -51.6677628
      objectReference: {fileID: 0}
    - target: {fileID: 400000, guid: 63a4e6fd0fb672941a41a90dd6f47aca, type: 3}
      propertyPath: m_LocalPosition.y
      value: 9.81537628
      objectReference: {fileID: 0}
    - target: {fileID: 400000, guid: 63a4e6fd0fb672941a41a90dd6f47aca, type: 3}
      propertyPath: m_LocalPosition.z
      value: -111.659935
      objectReference: {fileID: 0}
    - target: {fileID: 400000, guid: 63a4e6fd0fb672941a41a90dd6f47aca, type: 3}
      propertyPath: m_LocalRotation.x
      value: 0
      objectReference: {fileID: 0}
    - target: {fileID: 400000, guid: 63a4e6fd0fb672941a41a90dd6f47aca, type: 3}
      propertyPath: m_LocalRotation.y
      value: -0
      objectReference: {fileID: 0}
    - target: {fileID: 400000, guid: 63a4e6fd0fb672941a41a90dd6f47aca, type: 3}
      propertyPath: m_LocalRotation.z
      value: 0
      objectReference: {fileID: 0}
    - target: {fileID: 400000, guid: 63a4e6fd0fb672941a41a90dd6f47aca, type: 3}
      propertyPath: m_LocalRotation.w
      value: 1
      objectReference: {fileID: 0}
    m_RemovedComponents: []
  m_SourcePrefab: {fileID: 100100000, guid: 63a4e6fd0fb672941a41a90dd6f47aca, type: 3}
--- !u!4 &1924014938 stripped
Transform:
  m_CorrespondingSourceObject: {fileID: 400000, guid: 667326be87ba51e499a08074a6d6c4ff,
    type: 3}
  m_PrefabInstance: {fileID: 1054817469}
  m_PrefabAsset: {fileID: 0}
--- !u!4 &1976415071 stripped
Transform:
  m_CorrespondingSourceObject: {fileID: 400000, guid: 62486b824594537418e6be96990499af,
    type: 3}
  m_PrefabInstance: {fileID: 178138550}
  m_PrefabAsset: {fileID: 0}
--- !u!4 &2012528258 stripped
Transform:
  m_CorrespondingSourceObject: {fileID: 400000, guid: 63a4e6fd0fb672941a41a90dd6f47aca,
    type: 3}
  m_PrefabInstance: {fileID: 1854113879}
  m_PrefabAsset: {fileID: 0}
--- !u!1001 &2021685491
PrefabInstance:
  m_ObjectHideFlags: 0
  serializedVersion: 2
  m_Modification:
    m_TransformParent: {fileID: 301385720}
    m_Modifications:
    - target: {fileID: 400000, guid: 98e0944a4bd66d94092ba6edeb2b517c, type: 3}
      propertyPath: m_LocalPosition.x
      value: 18.9350815
      objectReference: {fileID: 0}
    - target: {fileID: 400000, guid: 98e0944a4bd66d94092ba6edeb2b517c, type: 3}
      propertyPath: m_LocalPosition.y
      value: 9.81537628
      objectReference: {fileID: 0}
    - target: {fileID: 400000, guid: 98e0944a4bd66d94092ba6edeb2b517c, type: 3}
      propertyPath: m_LocalPosition.z
      value: -77.3283081
      objectReference: {fileID: 0}
    - target: {fileID: 400000, guid: 98e0944a4bd66d94092ba6edeb2b517c, type: 3}
      propertyPath: m_LocalRotation.x
      value: 0
      objectReference: {fileID: 0}
    - target: {fileID: 400000, guid: 98e0944a4bd66d94092ba6edeb2b517c, type: 3}
      propertyPath: m_LocalRotation.y
      value: -0
      objectReference: {fileID: 0}
    - target: {fileID: 400000, guid: 98e0944a4bd66d94092ba6edeb2b517c, type: 3}
      propertyPath: m_LocalRotation.z
      value: 0
      objectReference: {fileID: 0}
    - target: {fileID: 400000, guid: 98e0944a4bd66d94092ba6edeb2b517c, type: 3}
      propertyPath: m_LocalRotation.w
      value: 1
      objectReference: {fileID: 0}
    m_RemovedComponents: []
  m_SourcePrefab: {fileID: 100100000, guid: 98e0944a4bd66d94092ba6edeb2b517c, type: 3}
--- !u!1001 &2042290461
PrefabInstance:
  m_ObjectHideFlags: 0
  serializedVersion: 2
  m_Modification:
    m_TransformParent: {fileID: 301385720}
    m_Modifications:
    - target: {fileID: 400000, guid: 7e0c5a1f50b45ec42bb7652479e23810, type: 3}
      propertyPath: m_LocalPosition.x
      value: 33.7879639
      objectReference: {fileID: 0}
    - target: {fileID: 400000, guid: 7e0c5a1f50b45ec42bb7652479e23810, type: 3}
      propertyPath: m_LocalPosition.y
      value: 9.81537628
      objectReference: {fileID: 0}
    - target: {fileID: 400000, guid: 7e0c5a1f50b45ec42bb7652479e23810, type: 3}
      propertyPath: m_LocalPosition.z
      value: 73.3860855
      objectReference: {fileID: 0}
    - target: {fileID: 400000, guid: 7e0c5a1f50b45ec42bb7652479e23810, type: 3}
      propertyPath: m_LocalRotation.x
      value: 0
      objectReference: {fileID: 0}
    - target: {fileID: 400000, guid: 7e0c5a1f50b45ec42bb7652479e23810, type: 3}
      propertyPath: m_LocalRotation.y
      value: -0
      objectReference: {fileID: 0}
    - target: {fileID: 400000, guid: 7e0c5a1f50b45ec42bb7652479e23810, type: 3}
      propertyPath: m_LocalRotation.z
      value: 0
      objectReference: {fileID: 0}
    - target: {fileID: 400000, guid: 7e0c5a1f50b45ec42bb7652479e23810, type: 3}
      propertyPath: m_LocalRotation.w
      value: 1
      objectReference: {fileID: 0}
    m_RemovedComponents: []
  m_SourcePrefab: {fileID: 100100000, guid: 7e0c5a1f50b45ec42bb7652479e23810, type: 3}
--- !u!1001 &2042334005
PrefabInstance:
  m_ObjectHideFlags: 0
  serializedVersion: 2
  m_Modification:
    m_TransformParent: {fileID: 301385720}
    m_Modifications:
    - target: {fileID: 400000, guid: b7fbf663444dcad409bfc0978b644503, type: 3}
      propertyPath: m_LocalPosition.x
      value: -5.99578857
      objectReference: {fileID: 0}
    - target: {fileID: 400000, guid: b7fbf663444dcad409bfc0978b644503, type: 3}
      propertyPath: m_LocalPosition.y
      value: 9.81537628
      objectReference: {fileID: 0}
    - target: {fileID: 400000, guid: b7fbf663444dcad409bfc0978b644503, type: 3}
      propertyPath: m_LocalPosition.z
      value: 16.910675
      objectReference: {fileID: 0}
    - target: {fileID: 400000, guid: b7fbf663444dcad409bfc0978b644503, type: 3}
      propertyPath: m_LocalRotation.x
      value: 0
      objectReference: {fileID: 0}
    - target: {fileID: 400000, guid: b7fbf663444dcad409bfc0978b644503, type: 3}
      propertyPath: m_LocalRotation.y
      value: -0
      objectReference: {fileID: 0}
    - target: {fileID: 400000, guid: b7fbf663444dcad409bfc0978b644503, type: 3}
      propertyPath: m_LocalRotation.z
      value: 0
      objectReference: {fileID: 0}
    - target: {fileID: 400000, guid: b7fbf663444dcad409bfc0978b644503, type: 3}
      propertyPath: m_LocalRotation.w
      value: 1
      objectReference: {fileID: 0}
    m_RemovedComponents: []
  m_SourcePrefab: {fileID: 100100000, guid: b7fbf663444dcad409bfc0978b644503, type: 3}
--- !u!4 &2088056253 stripped
Transform:
  m_CorrespondingSourceObject: {fileID: 400000, guid: 163ad948853f7154aaac3973d8701044,
    type: 3}
  m_PrefabInstance: {fileID: 572619739}
  m_PrefabAsset: {fileID: 0}
